1 647.000000 331.000000 4.209028
1 945.000000 1341.000000 4.209028
1 744.000000 1805.000000 4.209028
1 758.000000 2172.199219 4.209028
1 747.000000 2572.000000 4.209028
1 771.000000 2915.000000 4.209028
1 761.000000 3299.000000 4.209028
1 776.000000 3661.000000 4.209028
1 773.000000 4068.000000 4.209028
1 764.000000 4434.000000 4.209028
2 2165.000000 345.000000 4.209028
3 750.000000 175.000000 4.209028
3 2729.000000 298.000000 4.209028
3 1646.000000 767.214844 4.209028
3 577.000000 638.000000 4.209028
3 2959.000000 1101.000000 4.209028
3 2198.000000 1395.746094 4.209028
3 607.000000 1262.000000 4.209028
3 1155.000000 1513.000000 4.209028
3 3069.000000 1925.000000 4.209028
3 532.000000 2072.000000 4.209028
3 3086.000000 2767.000000 4.209028
3 424.476562 2703.000000 4.209028
3 442.000000 3730.000000 4.209028
4 2952.000000 347.000000 4.209028
4 2099.000000 386.000000 4.209028
4 726.000000 310.000000 4.209028
4 478.000000 1354.000000 4.209028
4 3022.890625 1864.000000 4.209028
4 1258.000000 2359.000000 4.209028
4 938.000000 1870.000000 4.209028
4 538.000000 1814.000000 4.209028
4 233.000000 2085.000000 4.209028
4 2932.000000 2887.000000 4.209028
4 1297.000000 3287.000000 4.209028
4 742.000000 2933.000000 4.209028
4 1974.042969 4338.000000 4.209028
4 277.000000 2786.000000 4.209028
5 2977.000000 265.000000 4.209028
5 583.000000 1307.000000 4.209028
5 1519.000000 1631.000000 4.209028
5 1891.000000 1945.000000 4.209028
5 653.000000 2333.000000 4.209028
5 1677.000000 2625.316406 4.209028
5 929.000000 2563.000000 4.209028
5 3110.000000 2889.000000 4.209028
5 456.000000 2957.000000 4.209028
5 3064.000000 3812.000000 4.209028
5 2542.000000 4341.000000 4.209028
5 1731.000000 4160.000000 4.209028
5 1295.000000 3910.000000 4.209028
5 820.000000 3825.000000 4.209028
5 328.000000 4206.000000 4.209028
6 2984.000000 333.000000 4.209028
6 685.000000 859.000000 4.209028
6 3061.000000 1398.000000 4.209028
6 693.000000 1375.000000 4.209028
6 3051.000000 2281.000000 4.209028
6 1964.000000 2573.000000 4.209028
6 1000.000000 2412.000000 4.209028
6 1677.000000 3496.000000 4.209028
6 2236.000000 3349.000000 4.209028
6 576.000000 3234.000000 4.209028
6 289.000000 3526.000000 4.209028
6 363.000000 2203.000000 4.209028
7 2619.000000 442.000000 4.209028
7 401.000000 795.000000 4.209028
7 1480.000000 1209.000000 4.209028
7 3047.000000 2304.000000 4.209028
7 2467.000000 2616.000000 4.209028
7 1617.000000 2620.000000 4.209028
7 3109.000000 3662.000000 4.209028
7 1234.000000 4306.000000 4.209028
7 642.000000 4547.000000 4.209028
8 2859.000000 484.000000 4.209028
8 846.000000 2050.000000 4.209028
8 522.000000 1433.000000 4.209028
8 2972.000000 2581.000000 4.209028
8 1498.000000 2672.000000 4.209028
8 2258.000000 2730.000000 4.209028
8 2160.000000 3420.000000 4.209028
8 1258.000000 3739.000000 4.209028
9 1884.000000 371.000000 4.209028
9 1486.000000 653.000000 4.209028
9 2324.000000 2580.000000 4.209028
9 761.000000 2964.000000 4.209028
9 2773.000000 3370.000000 4.209028
9 2827.000000 3542.000000 4.209028
9 1324.000000 3370.000000 4.209028
9 697.683594 3145.000000 4.209028
9 3140.000000 3815.000000 4.209028
9 2232.000000 3829.000000 4.209028
9 1934.000000 3776.000000 4.209028
9 1539.000000 4443.000000 4.209028
9 1247.000000 4023.000000 4.209028
9 1003.000000 3819.000000 4.209028
10 879.000000 404.000000 4.209028
10 2514.000000 1895.000000 4.209028
10 2755.000000 4283.000000 4.209028
10 2103.000000 3451.000000 4.209028
11 2741.937500 520.000000 4.209028
11 1321.000000 505.000000 4.209028
11 1958.000000 1210.000000 4.209028
11 866.000000 676.000000 4.209028
11 2963.000000 1982.000000 4.209028
11 1868.000000 1993.000000 4.209028
11 581.000000 2044.000000 4.209028
11 3024.000000 3026.000000 4.209028
11 1654.000000 3996.000000 4.209028
11 1260.000000 2977.000000 4.209028
12 1717.000000 2423.000000 4.209028
12 463.000000 2450.000000 4.209028
12 1500.000000 3659.000000 4.209028
12 750.000000 3495.000000 4.209028
13 1415.000000 3104.000000 4.209028
13 1672.000000 4315.000000 4.209028
14 2820.000000 375.000000 4.209028
14 1776.000000 606.000000 4.209028
14 2870.000000 1197.000000 4.209028
14 1339.000000 2262.000000 4.209028
14 382.000000 1256.000000 4.209028
14 3096.000000 2741.000000 4.209028
14 2547.000000 3040.000000 4.209028
14 978.000000 2715.000000 4.209028
14 746.000000 2934.000000 4.209028
14 337.000000 2740.000000 4.209028
14 3075.000000 3622.000000 4.209028
14 1701.000000 3976.000000 4.209028
14 1859.000000 4142.000000 4.209028
14 340.000000 4027.746094 4.209028
15 3111.000000 324.000000 4.209028
15 2112.000000 362.000000 4.209028
15 721.000000 399.000000 4.209028
15 432.000000 357.000000 4.209028
15 3048.000000 1365.000000 4.209028
15 1372.000000 1658.000000 4.209028
15 1571.000000 2496.000000 4.209028
15 1034.000000 1345.000000 4.209028
15 455.000000 2257.000000 4.209028
15 409.000000 2922.000000 4.209028
15 3057.000000 3287.000000 4.209028
15 466.000000 3594.000000 4.209028
15 1824.000000 4435.000000 4.209028
16 2465.000000 254.000000 4.209028
16 905.000000 261.000000 4.209028
16 2866.000000 1004.000000 4.209028
16 1696.000000 1130.000000 4.209028
16 1964.000000 1801.000000 4.209028
16 1887.000000 1930.000000 4.209028
16 1489.000000 2300.000000 4.209028
16 1070.000000 2445.000000 4.209028
16 352.000000 2815.000000 4.209028
16 2005.000000 3742.000000 4.209028
16 1552.000000 3707.000000 4.209028
16 668.000000 3839.000000 4.209028
17 2166.000000 945.000000 4.209028
17 1263.000000 822.000000 4.209028
17 747.000000 1673.000000 4.209028
17 3071.000000 3093.000000 4.209028
17 1992.000000 3957.000000 4.209028
17 855.000000 3085.000000 4.209028
17 438.000000 3404.000000 4.209028
18 2988.000000 438.000000 4.209028
18 1242.000000 350.101562 4.209028
18 472.000000 1158.000000 4.209028
18 3056.000000 2142.000000 4.209028
18 2471.000000 2734.000000 4.209028
18 1067.000000 2164.000000 4.209028
18 748.000000 2093.000000 4.209028
18 466.000000 2191.000000 4.209028
18 3045.000000 3119.000000 4.209028
18 1545.000000 3507.000000 4.209028
18 1197.000000 3128.000000 4.209028
18 434.000000 3186.000000 4.209028
18 325.000000 3908.000000 4.209028
19 3108.000000 369.000000 4.209028
19 2119.000000 786.000000 4.209028
19 2000.000000 410.000000 4.209028
19 454.000000 906.000000 4.209028
19 3113.000000 1917.000000 4.209028
19 2086.000000 2461.000000 4.209028
19 625.000000 1956.000000 4.209028
19 299.000000 2139.000000 4.209028
19 3157.000000 2680.000000 4.209028
19 2113.000000 2803.000000 4.209028
19 490.000000 3234.000000 4.209028
20 3027.000000 326.000000 4.209028
20 791.000000 383.000000 4.209028
20 2932.000000 1511.000000 4.209028
20 812.000000 2111.000000 4.209028
20 545.000000 3002.000000 4.209028
21 1011.000000 2730.000000 4.209028
21 1721.000000 3656.000000 4.209028
21 569.000000 3344.000000 4.209028
22 2185.000000 294.000000 4.209028
23 762.000000 168.000000 4.209028
23 1765.000000 468.000000 4.209028
23 1609.000000 2216.000000 4.209028
23 770.000000 1945.000000 4.209028
23 1826.000000 3514.000000 4.209028
23 2904.000000 3934.000000 4.209028
24 2319.000000 442.000000 4.209028
24 353.000000 1066.000000 4.209028
24 3093.000000 2181.000000 4.209028
24 1163.000000 2314.000000 4.209028
24 961.640625 2837.000000 4.209028
24 724.000000 3094.000000 4.209028
24 2952.000000 3723.000000 4.209028
24 378.000000 3957.000000 4.209028
25 2903.000000 874.000000 4.209028
25 825.000000 922.000000 4.209028
25 2892.000000 1805.000000 4.209028
25 643.000000 1713.000000 4.209028
25 3002.000000 3122.000000 4.209028
25 2804.000000 4418.000000 4.209028
25 1091.000000 3479.000000 4.209028
25 795.000000 4081.000000 4.209028
26 2941.148438 388.000000 4.209028
26 1893.000000 520.000000 4.209028
26 629.000000 634.000000 4.209028
26 2838.000000 2238.000000 4.209028
26 730.000000 2243.000000 4.209028
26 2785.000000 3043.000000 4.209028
26 1547.000000 2948.000000 4.209028
26 1180.000000 3148.000000 4.209028
26 837.000000 2791.000000 4.209028
26 378.000000 3624.000000 4.209028
27 466.000000 303.000000 4.209028
27 1110.000000 122.000000 4.209028
27 736.000000 683.000000 4.209028
27 402.000000 762.000000 4.209028
27 3012.000000 2136.000000 4.209028
27 554.062500 2057.000000 4.209028
27 3019.500000 3096.000000 4.209028
27 2713.000000 3230.000000 4.209028
27 637.000000 2928.000000 4.209028
27 2075.000000 3692.000000 4.209028
27 1306.000000 3719.000000 4.209028
27 780.000000 3732.000000 4.209028
27 304.000000 3917.000000 4.209028
28 2248.000000 360.000000 4.209028
28 826.000000 1211.000000 4.209028
28 3047.000000 2004.000000 4.209028
28 1990.000000 2377.000000 4.209028
28 980.000000 2077.000000 4.209028
28 484.000000 2728.039062 4.209028
28 3076.867188 3795.000000 4.209028
28 2315.000000 3709.000000 4.209028
28 515.000000 3857.000000 4.209028
29 3057.000000 374.000000 4.209028
29 1752.000000 1318.000000 4.209028
29 1521.000000 441.000000 4.209028
29 1543.000000 1742.000000 4.209028
29 251.000000 1779.000000 4.209028
29 3063.000000 2562.000000 4.209028
29 2277.000000 2534.000000 4.209028
29 1065.000000 2684.000000 4.209028
29 562.000000 3020.000000 4.209028
29 3049.000000 4085.000000 4.209028
29 1001.000000 4169.000000 4.209028
30 2972.000000 350.000000 4.209028
30 379.000000 524.000000 4.209028
30 1695.000000 1614.000000 4.209028
30 2976.000000 2119.000000 4.209028
30 422.000000 3300.000000 4.209028
30 1144.000000 2731.000000 4.209028
30 330.000000 4062.000000 4.209028
31 2899.000000 437.000000 4.209028
31 1760.000000 1399.000000 4.209028
31 1082.000000 1391.000000 4.209028
31 547.000000 1316.000000 4.209028
31 3021.000000 2555.000000 4.209028
31 537.000000 2667.000000 4.209028
31 3006.000000 3588.000000 4.209028
31 1255.000000 3627.000000 4.209028
32 2955.000000 524.000000 4.209028
32 454.000000 772.000000 4.209028
32 3049.000000 1635.000000 4.209028
32 1128.000000 1683.000000 4.209028
32 1847.000000 2851.000000 4.209028
32 2949.000000 3894.000000 4.209028
32 442.000000 3859.000000 4.209028
33 2512.000000 562.000000 4.209028
33 1063.000000 555.000000 4.209028
33 1641.000000 1212.000000 4.209028
33 2200.496094 1998.000000 4.209028
33 1209.000000 2229.000000 4.209028
33 1387.000000 2383.000000 4.209028
33 616.000000 2753.000000 4.209028
33 2627.000000 3672.000000 4.209028
33 2119.000000 3810.000000 4.209028
34 2485.000000 535.000000 4.209028
34 2435.000000 1130.000000 4.209028
34 1693.000000 673.000000 4.209028
34 1176.000000 533.000000 4.209028
34 1416.000000 1262.000000 4.209028
34 2105.000000 2866.000000 4.209028
34 641.000000 4266.000000 4.209028
35 2509.000000 574.000000 4.209028
35 2023.000000 388.000000 4.209028
35 1095.000000 331.000000 4.209028
35 2821.000000 1708.000000 4.209028
35 3027.000000 2887.000000 4.209028
35 3071.000000 4253.000000 4.209028
36 716.000000 625.000000 4.209028
36 1425.000000 3607.000000 4.209028
36 1029.000000 4321.000000 4.209028
